# Blender v2.82 (sub 7) OBJ File: ''
# www.blender.org
mtllib creeper.mtl
o Creeper_Mesh
v -0.101600 -0.177800 0.050800
v 0.101600 -0.177800 0.050800
v -0.101600 -0.177800 -0.050800
v 0.101600 -0.177800 -0.050800
v -0.101600 0.127000 0.050800
v 0.101600 0.127000 0.050800
v -0.101600 0.127000 -0.050800
v 0.101600 0.127000 -0.050800
v -0.101600 0.127000 0.101600
v 0.101600 0.127000 0.101600
v -0.101600 0.127000 -0.101600
v 0.101600 0.127000 -0.101600
v -0.101600 0.330200 0.101600
v 0.101600 0.330200 0.101600
v -0.101600 0.330200 -0.101600
v 0.101600 0.330200 -0.101600
v -0.101600 -0.330200 0.152400
v -0.000000 -0.330200 0.152400
v -0.101600 -0.330200 0.050800
v -0.000000 -0.330200 0.050800
v -0.101600 -0.177800 0.152400
v -0.000000 -0.177800 0.152400
v -0.101600 -0.177800 0.050800
v -0.000000 -0.177800 0.050800
v 0.000000 -0.330200 0.152400
v 0.101600 -0.330200 0.152400
v 0.000000 -0.330200 0.050800
v 0.101600 -0.330200 0.050800
v 0.000000 -0.177800 0.152400
v 0.101600 -0.177800 0.152400
v 0.000000 -0.177800 0.050800
v 0.101600 -0.177800 0.050800
v -0.101600 -0.330200 -0.050800
v -0.000000 -0.330200 -0.050800
v -0.101600 -0.330200 -0.152400
v -0.000000 -0.330200 -0.152400
v -0.101600 -0.177800 -0.050800
v -0.000000 -0.177800 -0.050800
v -0.101600 -0.177800 -0.152400
v -0.000000 -0.177800 -0.152400
v 0.000000 -0.330200 -0.050800
v 0.101600 -0.330200 -0.050800
v 0.000000 -0.330200 -0.152400
v 0.101600 -0.330200 -0.152400
v 0.000000 -0.177800 -0.050800
v 0.101600 -0.177800 -0.050800
v 0.000000 -0.177800 -0.152400
v 0.101600 -0.177800 -0.152400
vt 0.437500 0.750000
vt 0.562710 0.687500
vt 0.437500 0.687500
vt 0.437500 0.687500
vt 0.312500 0.750000
vt 0.312500 0.687500
vt 0.437500 0.500000
vt 0.312500 0.500000
vt 0.500000 0.500000
vt 0.625000 0.500000
vt 0.500000 0.687500
vt 0.250000 0.687500
vt 0.250000 0.500000
vt 0.250000 1.000000
vt 0.375000 0.875000
vt 0.250000 0.875000
vt 0.250000 0.875000
vt 0.125000 1.000000
vt 0.125000 0.875000
vt 0.250000 0.750000
vt 0.125000 0.750000
vt 0.375000 0.750000
vt 0.500000 0.750000
vt 0.375000 0.875000
vt 0.000000 0.875000
vt 0.000000 0.750000
vt 0.125000 0.750000
vt 0.187500 0.687500
vt 0.125000 0.687500
vt 0.125000 0.687500
vt 0.062500 0.750000
vt 0.062500 0.687500
vt 0.125000 0.593816
vt 0.062500 0.593816
vt 0.187500 0.593816
vt 0.250000 0.593816
vt 0.187500 0.687500
vt 0.000000 0.687500
vt 0.000000 0.593816
vt 0.125000 0.750000
vt 0.187500 0.687500
vt 0.125000 0.687500
vt 0.125000 0.687500
vt 0.062500 0.750000
vt 0.062500 0.687500
vt 0.125000 0.593816
vt 0.062500 0.593816
vt 0.187500 0.593816
vt 0.250000 0.593816
vt 0.187500 0.687500
vt 0.000000 0.687500
vt 0.000000 0.593816
vt 0.125000 0.750000
vt 0.187500 0.687500
vt 0.125000 0.687500
vt 0.125000 0.687500
vt 0.062500 0.750000
vt 0.062500 0.687500
vt 0.125000 0.593816
vt 0.062500 0.593816
vt 0.187500 0.593816
vt 0.250000 0.593816
vt 0.187500 0.687500
vt 0.000000 0.687500
vt 0.000000 0.593816
vt 0.125000 0.750000
vt 0.187500 0.687500
vt 0.125000 0.687500
vt 0.125000 0.687500
vt 0.062500 0.750000
vt 0.062500 0.687500
vt 0.125000 0.593816
vt 0.062500 0.593816
vt 0.187500 0.593816
vt 0.250000 0.593816
vt 0.187500 0.687500
vt 0.000000 0.687500
vt 0.000000 0.593816
vt 0.562500 0.750000
vt 0.437500 0.750000
vt 0.625000 0.687500
vt 0.375000 1.000000
vt 0.250000 1.000000
vt 0.500000 0.875000
vt 0.187500 0.750000
vt 0.125000 0.750000
vt 0.250000 0.687500
vt 0.187500 0.750000
vt 0.125000 0.750000
vt 0.250000 0.687500
vt 0.187500 0.750000
vt 0.125000 0.750000
vt 0.250000 0.687500
vt 0.187500 0.750000
vt 0.125000 0.750000
vt 0.250000 0.687500
vn 0.0000 -1.0000 0.0000
vn 0.0000 1.0000 0.0000
vn 0.0000 0.0000 1.0000
vn 1.0000 -0.0000 0.0000
vn 0.0000 -0.0000 -1.0000
vn -1.0000 -0.0000 0.0000
usemtl 02_-_Default
s 1
f 3/1/1 2/2/1 1/3/1
f 6/4/2 7/5/2 5/6/2
f 2/7/3 5/6/3 1/8/3
f 4/9/4 6/4/4 2/7/4
f 3/10/5 8/11/5 4/9/5
f 1/8/6 7/12/6 3/13/6
f 11/14/1 10/15/1 9/16/1
f 14/17/2 15/18/2 13/19/2
f 10/20/3 13/19/3 9/21/3
f 12/22/4 14/17/4 10/20/4
f 11/23/5 16/24/5 12/22/5
f 9/21/6 15/25/6 11/26/6
f 19/27/1 18/28/1 17/29/1
f 22/30/2 23/31/2 21/32/2
f 18/33/3 21/32/3 17/34/3
f 20/35/4 22/30/4 18/33/4
f 19/36/5 24/37/5 20/35/5
f 17/34/6 23/38/6 19/39/6
f 27/40/1 26/41/1 25/42/1
f 30/43/2 31/44/2 29/45/2
f 26/46/3 29/45/3 25/47/3
f 28/48/4 30/43/4 26/46/4
f 27/49/5 32/50/5 28/48/5
f 25/47/6 31/51/6 27/52/6
f 35/53/1 34/54/1 33/55/1
f 38/56/2 39/57/2 37/58/2
f 34/59/3 37/58/3 33/60/3
f 36/61/4 38/56/4 34/59/4
f 35/62/5 40/63/5 36/61/5
f 33/60/6 39/64/6 35/65/6
f 43/66/1 42/67/1 41/68/1
f 46/69/2 47/70/2 45/71/2
f 42/72/3 45/71/3 41/73/3
f 44/74/4 46/69/4 42/72/4
f 43/75/5 48/76/5 44/74/5
f 41/73/6 47/77/6 43/78/6
f 3/1/1 4/79/1 2/2/1
f 6/4/2 8/80/2 7/5/2
f 2/7/3 6/4/3 5/6/3
f 4/9/4 8/11/4 6/4/4
f 3/10/5 7/81/5 8/11/5
f 1/8/6 5/6/6 7/12/6
f 11/14/1 12/82/1 10/15/1
f 14/17/2 16/83/2 15/18/2
f 10/20/3 14/17/3 13/19/3
f 12/22/4 16/24/4 14/17/4
f 11/23/5 15/84/5 16/24/5
f 9/21/6 13/19/6 15/25/6
f 19/27/1 20/85/1 18/28/1
f 22/30/2 24/86/2 23/31/2
f 18/33/3 22/30/3 21/32/3
f 20/35/4 24/37/4 22/30/4
f 19/36/5 23/87/5 24/37/5
f 17/34/6 21/32/6 23/38/6
f 27/40/1 28/88/1 26/41/1
f 30/43/2 32/89/2 31/44/2
f 26/46/3 30/43/3 29/45/3
f 28/48/4 32/50/4 30/43/4
f 27/49/5 31/90/5 32/50/5
f 25/47/6 29/45/6 31/51/6
f 35/53/1 36/91/1 34/54/1
f 38/56/2 40/92/2 39/57/2
f 34/59/3 38/56/3 37/58/3
f 36/61/4 40/63/4 38/56/4
f 35/62/5 39/93/5 40/63/5
f 33/60/6 37/58/6 39/64/6
f 43/66/1 44/94/1 42/67/1
f 46/69/2 48/95/2 47/70/2
f 42/72/3 46/69/3 45/71/3
f 44/74/4 48/76/4 46/69/4
f 43/75/5 47/96/5 48/76/5
f 41/73/6 45/71/6 47/77/6
