# Blender v2.82 (sub 7) OBJ File: ''
# www.blender.org
mtllib emerald_block.mtl
o Box
v 0.500000 0.500000 0.500000
v 0.500000 -0.500000 0.500000
v 0.500000 -0.500000 -0.500000
v 0.500000 0.500000 -0.500000
v -0.500000 0.500000 -0.500000
v -0.500000 -0.500000 -0.500000
v -0.500000 -0.500000 0.500000
v -0.500000 0.500000 0.500000
vt 0.000000 0.000000
vt 1.000000 1.000000
vt 0.000000 1.000000
vt 0.000000 0.000000
vt 1.000000 1.000000
vt 0.000000 1.000000
vt 0.000000 0.000000
vt 1.000000 1.000000
vt 0.000000 1.000000
vt 0.000000 0.000000
vt 1.000000 1.000000
vt 0.000000 1.000000
vt 1.000000 0.000000
vt 1.000000 0.000000
vt 1.000000 0.000000
vt 1.000000 0.000000
vt 0.000000 0.000000
vt 1.000000 0.000000
vt 1.000000 1.000000
vt 0.000000 1.000000
vn 1.0000 0.0000 0.0000
vn -1.0000 0.0000 0.0000
vn 0.0000 -0.0000 1.0000
vn 0.0000 0.0000 -1.0000
vn 0.0000 1.0000 0.0000
vn 0.0000 -1.0000 -0.0000
usemtl Grass2
s 1
f 2/1/1 4/2/1 1/3/1
f 6/4/2 8/5/2 5/6/2
f 7/7/3 1/8/3 8/9/3
f 3/10/4 5/11/4 4/12/4
f 2/1/1 3/13/1 4/2/1
f 6/4/2 7/14/2 8/5/2
f 7/7/3 2/15/3 1/8/3
f 3/10/4 6/16/4 5/11/4
usemtl Grass4
f 8/17/5 4/2/5 5/6/5
f 8/17/5 1/18/5 4/2/5
usemtl Grass3
f 6/4/6 2/19/6 7/20/6
f 6/4/6 3/13/6 2/19/6
