# Blender v2.83.4 OBJ File: ''
# www.blender.org
mtllib steve_injured.mtl
o Steve_Mesh
v 0.101600 -0.101600 -0.050800
v 0.101600 0.101600 0.050800
v 0.101600 -0.101600 0.050800
v -0.203200 0.101600 0.050800
v -0.203200 -0.101600 -0.050800
v -0.203200 -0.101600 0.050800
v 0.101600 0.101600 -0.050800
v -0.203200 0.101600 -0.050800
v -0.203200 -0.101600 -0.101600
v -0.203200 0.101600 0.101600
v -0.203200 -0.101600 0.101600
v -0.406400 0.101600 0.101600
v -0.406400 -0.101600 -0.101600
v -0.406400 -0.101600 0.101600
v -0.203200 0.101600 -0.101600
v -0.406400 0.101600 -0.101600
v 0.101600 0.101600 -0.050800
v 0.101600 0.203200 0.050800
v 0.101600 0.101600 0.050800
v -0.203200 0.203200 0.050800
v -0.203200 0.101600 -0.050800
v -0.203200 0.101600 0.050800
v 0.101600 0.203200 -0.050800
v -0.203200 0.203200 -0.050800
v 0.101600 -0.203200 -0.050800
v 0.101600 -0.101600 0.050800
v 0.101600 -0.203200 0.050800
v -0.203200 -0.101600 0.050800
v -0.203200 -0.203200 -0.050800
v -0.203200 -0.203200 0.050800
v 0.101600 -0.101600 -0.050800
v -0.203200 -0.101600 -0.050800
v 0.406400 0.000000 -0.050800
v 0.406400 0.101600 0.050800
v 0.406400 0.000000 0.050800
v 0.101600 0.101600 0.050800
v 0.101600 0.000000 -0.050800
v 0.101600 0.000000 0.050800
v 0.406400 0.101600 -0.050800
v 0.101600 0.101600 -0.050800
v 0.406400 -0.101600 -0.050800
v 0.406400 0.000000 0.050800
v 0.406400 -0.101600 0.050800
v 0.101600 0.000000 0.050800
v 0.101600 -0.101600 -0.050800
v 0.101600 -0.101600 0.050800
v 0.406400 0.000000 -0.050800
v 0.101600 0.000000 -0.050800
vt 0.437500 0.750000
vt 0.562375 0.687500
vt 0.437500 0.687500
vt 0.437500 0.687500
vt 0.312500 0.750000
vt 0.312500 0.687500
vt 0.437500 0.500000
vt 0.312500 0.500000
vt 0.500000 0.500000
vt 0.625000 0.500000
vt 0.500000 0.687500
vt 0.250000 0.687500
vt 0.250000 0.500000
vt 0.375000 1.000000
vt 0.250000 0.875000
vt 0.250000 1.000000
vt 0.250000 0.875000
vt 0.125000 1.000000
vt 0.125000 0.875000
vt 0.250000 0.750000
vt 0.125000 0.750000
vt 0.375000 0.750000
vt 0.500000 0.750000
vt 0.375000 0.875000
vt 0.000000 0.875000
vt 0.000000 0.750000
vt 0.625000 0.250000
vt 0.687500 0.187500
vt 0.625000 0.187500
vt 0.625000 0.187500
vt 0.562500 0.250000
vt 0.562500 0.187500
vt 0.625000 0.000000
vt 0.562500 0.000000
vt 0.687500 0.000000
vt 0.750000 0.000000
vt 0.687500 0.187500
vt 0.500000 0.187500
vt 0.500000 0.000000
vt 0.750000 0.750000
vt 0.812500 0.687500
vt 0.750000 0.687500
vt 0.750000 0.687500
vt 0.687500 0.750000
vt 0.687500 0.687500
vt 0.750000 0.500000
vt 0.687500 0.500000
vt 0.812500 0.500000
vt 0.875000 0.500000
vt 0.812500 0.687500
vt 0.625000 0.687500
vt 0.625000 0.500000
vt 0.375000 0.250000
vt 0.437500 0.187500
vt 0.375000 0.187500
vt 0.375000 0.187500
vt 0.312500 0.250000
vt 0.312500 0.187500
vt 0.375000 0.000000
vt 0.312500 0.000000
vt 0.437500 0.000000
vt 0.500000 0.000000
vt 0.437500 0.187500
vt 0.250000 0.187500
vt 0.250000 0.000000
vt 0.125000 0.750000
vt 0.187500 0.687500
vt 0.125000 0.687500
vt 0.125000 0.687500
vt 0.062500 0.750000
vt 0.062500 0.687500
vt 0.125000 0.500000
vt 0.062500 0.500000
vt 0.187500 0.500000
vt 0.250000 0.500000
vt 0.187500 0.687500
vt 0.000000 0.687500
vt 0.000000 0.500000
vt 0.562500 0.750000
vt 0.437500 0.750000
vt 0.625000 0.687500
vt 0.375000 0.875000
vt 0.250000 1.000000
vt 0.500000 0.875000
vt 0.687500 0.250000
vt 0.625000 0.250000
vt 0.750000 0.187500
vt 0.812500 0.750000
vt 0.750000 0.750000
vt 0.875000 0.687500
vt 0.437500 0.250000
vt 0.375000 0.250000
vt 0.500000 0.187500
vt 0.187500 0.750000
vt 0.125000 0.750000
vt 0.250000 0.687500
vn 1.0000 0.0000 0.0000
vn -1.0000 0.0000 0.0000
vn 0.0000 0.0000 1.0000
vn -0.0000 1.0000 0.0000
vn -0.0000 -0.0000 -1.0000
vn 0.0000 -1.0000 0.0000
usemtl 02_-_Default
s 1
f 1/1/1 2/2/1 3/3/1
f 4/4/2 5/5/2 6/6/2
f 2/7/3 6/6/3 3/8/3
f 7/9/4 4/4/4 2/7/4
f 1/10/5 8/11/5 7/9/5
f 3/8/6 5/12/6 1/13/6
f 9/14/1 10/15/1 11/16/1
f 12/17/2 13/18/2 14/19/2
f 10/20/3 14/19/3 11/21/3
f 15/22/4 12/17/4 10/20/4
f 9/23/5 16/24/5 15/22/5
f 11/21/6 13/25/6 9/26/6
f 17/27/1 18/28/1 19/29/1
f 20/30/2 21/31/2 22/32/2
f 18/33/3 22/32/3 19/34/3
f 23/35/4 20/30/4 18/33/4
f 17/36/5 24/37/5 23/35/5
f 19/34/6 21/38/6 17/39/6
f 25/40/1 26/41/1 27/42/1
f 28/43/2 29/44/2 30/45/2
f 26/46/3 30/45/3 27/47/3
f 31/48/4 28/43/4 26/46/4
f 25/49/5 32/50/5 31/48/5
f 27/47/6 29/51/6 25/52/6
f 33/53/1 34/54/1 35/55/1
f 36/56/2 37/57/2 38/58/2
f 34/59/3 38/58/3 35/60/3
f 39/61/4 36/56/4 34/59/4
f 33/62/5 40/63/5 39/61/5
f 35/60/6 37/64/6 33/65/6
f 41/66/1 42/67/1 43/68/1
f 44/69/2 45/70/2 46/71/2
f 42/72/3 46/71/3 43/73/3
f 47/74/4 44/69/4 42/72/4
f 41/75/5 48/76/5 47/74/5
f 43/73/6 45/77/6 41/78/6
f 1/1/1 7/79/1 2/2/1
f 4/4/2 8/80/2 5/5/2
f 2/7/3 4/4/3 6/6/3
f 7/9/4 8/11/4 4/4/4
f 1/10/5 5/81/5 8/11/5
f 3/8/6 6/6/6 5/12/6
f 9/14/1 15/82/1 10/15/1
f 12/17/2 16/83/2 13/18/2
f 10/20/3 12/17/3 14/19/3
f 15/22/4 16/24/4 12/17/4
f 9/23/5 13/84/5 16/24/5
f 11/21/6 14/19/6 13/25/6
f 17/27/1 23/85/1 18/28/1
f 20/30/2 24/86/2 21/31/2
f 18/33/3 20/30/3 22/32/3
f 23/35/4 24/37/4 20/30/4
f 17/36/5 21/87/5 24/37/5
f 19/34/6 22/32/6 21/38/6
f 25/40/1 31/88/1 26/41/1
f 28/43/2 32/89/2 29/44/2
f 26/46/3 28/43/3 30/45/3
f 31/48/4 32/50/4 28/43/4
f 25/49/5 29/90/5 32/50/5
f 27/47/6 30/45/6 29/51/6
f 33/53/1 39/91/1 34/54/1
f 36/56/2 40/92/2 37/57/2
f 34/59/3 36/56/3 38/58/3
f 39/61/4 40/63/4 36/56/4
f 33/62/5 37/93/5 40/63/5
f 35/60/6 38/58/6 37/64/6
f 41/66/1 47/94/1 42/67/1
f 44/69/2 48/95/2 45/70/2
f 42/72/3 44/69/3 46/71/3
f 47/74/4 48/76/4 44/69/4
f 41/75/5 45/96/5 48/76/5
f 43/73/6 46/71/6 45/77/6
